「ミクロ政治データ分析実習」第13回課題
…
データはプロジェクト・フォルダー内にDataというフォルダーを作成し、そこにアップロードしておくこと。

データの読み込みには必ずread_csv()関数を使うこと（read.csv()は使わない）。

# ここにRコード

## Rows: 1684 Columns: 10
## ── Column specification ────────────────────────────────────────────────────────
## Delimiter: ","
## dbl (10): ID, Quiz1, Quiz2, Quiz3, Quiz4, Quiz5, Quiz6, Gender, Age, Educ
## 
## ℹ Use `spec()` to retrieve the full column specification for this data.
## ℹ Specify the column types or set `show_col_types = FALSE` to quiet this message.

## # A tibble: 1,684 × 10
##       ID Quiz1 Quiz2 Quiz3 Quiz4 Quiz5 Quiz6 Gender   Age  Educ
##    <dbl> <dbl> <dbl> <dbl> <dbl> <dbl> <dbl>  <dbl> <dbl> <dbl>
##  1     1     3     4     3     1     1     1      1    73     3
##  2     5     8     8     8     8     8     8      2    94     1
##  3    11     8     8     8     8     8     1      2    57     3
##  4    51     3     2     8     8     1     1      2    62     3
##  5   104     3     2     4     8     8     1      1    50     4
##  6   108     3     4     4     8     8     1      2    57     4
##  7   124     3     1     2     1     1     1      1    78     1
##  8   133     3     8     4     8     8     8      1    64     1
##  9   139     3     4     4     8     1     1      2    57     3
## 10   152     3     4     4     8     8     1      1    44     4
## # … with 1,674 more rows
…
Educ変数:
Educ変数の9であれば、欠損値とし、それ以外は既存のEducの変数の値のままとする。

Educ変数:
Educの値が4であれば"大卒以上"、それ以外は"大卒未満"とリコーディングし、Educ_Jという名の列として追加する。

Educが欠損している行を除外する。

以上の結果をraw_dfに上書きし、raw_dfを出力する。

出力される変数（列）の順番は以下の例と一致しなくても良い。

# ここにRコード

## # A tibble: 1,670 × 13
##       ID Quiz1 Quiz2 Quiz3 Quiz4 Quiz5 Quiz6 Gender   Age  Educ Age_J  Gender_J
##    <dbl> <dbl> <dbl> <dbl> <dbl> <dbl> <dbl>  <dbl> <dbl> <dbl> <chr>  <fct>   
##  1     1     3     4     3     1     1     1      1    73     3 高齢層 男性    
##  2     5     8     8     8     8     8     8      2    94     1 高齢層 女性    
##  3    11     8     8     8     8     8     1      2    57     3 中年層 女性    
##  4    51     3     2     8     8     1     1      2    62     3 中年層 女性    
##  5   104     3     2     4     8     8     1      1    50     4 中年層 男性    
##  6   108     3     4     4     8     8     1      2    57     4 中年層 女性    
##  7   124     3     1     2     1     1     1      1    78     1 高齢層 男性    
##  8   133     3     8     4     8     8     8      1    64     1 中年層 男性    
##  9   139     3     4     4     8     1     1      2    57     3 中年層 女性    
## 10   152     3     4     4     8     8     1      1    44     4 中年層 男性    
## # … with 1,660 more rows, and 1 more variable: Educ_J <chr>

問題6:
raw_dfのQuiz1からQuiz6変数を正解なら1、それ以外は0になるように再コーディングし、既存の変数に上書きする。続いて、Quiz1からQuiz6までの合計を計算し、Knowledgeという列として追加する。最後にQuiz1からQuiz6までの列を削除する。以上の結果をdfという名のオブジェクトとして格納し、dfを出力すること。

# ここにRコード

## # A tibble: 1,670 × 8
##       ID Gender   Age  Educ Age_J  Gender_J Educ_J   Knowledge
##    <dbl>  <dbl> <dbl> <dbl> <chr>  <fct>    <chr>        <dbl>
##  1     1      1    73     3 高齢層 男性     大卒未満         6
##  2     5      2    94     1 高齢層 女性     大卒未満         0
##  3    11      2    57     3 中年層 女性     大卒未満         1
##  4    51      2    62     3 中年層 女性     大卒未満         3
##  5   104      1    50     4 中年層 男性     大卒以上         2
##  6   108      2    57     4 中年層 女性     大卒以上         3
##  7   124      1    78     1 高齢層 男性     大卒未満         4
##  8   133      1    64     1 中年層 男性     大卒未満         1
##  9   139      2    57     3 中年層 女性     大卒未満         4
## 10   152      1    44     4 中年層 男性     大卒以上         3
## # … with 1,660 more rows
…
