MicroAnalysis@Kandai - 第3回講義資料
…
# 以下のデータはサポートページの「データ集」から入手可能
my_data <- read_csv("Data/Pref_Vote.csv")

　ちなみに現在の作業環境内に、どのようなオブジェクトが存在するかを確認するためにはConsoleペイン上でls()を入力する2。

ls()

[1] "my_data" "my_vec1" "my_vec2" "my_vec3" "my_vec4" "my_vec5" "x"      
[8] "y"      

　問題なくmy_dataというオブジェクトが生成されていることが分かる。それではデータの中身を確認してみよう。

my_data # または、print(my_data)

# A tibble: 47 × 16
      ID Pref  Fiscal Young Older Jimin Rikken Kokumin Komei Ishin Kyosan Shamin
   <dbl> <chr>  <dbl> <dbl> <dbl> <dbl>  <dbl>   <dbl> <dbl> <dbl>  <dbl>  <dbl>
 1     1 北海…  0.462  23.4  32.3  32.3   20.9    6.65 11.7   7.78  11.6    1.31
 2     2 青森…  0.358  21.9  33.7  39.8   22.0    7.24 11.3   3.40   8.31   2.36
 3     3 岩手…  0.372  22.7  33.8  35.5   17.8   12.5   8.22  4.36  10.4    3.83
 4     4 宮城…  0.626  26.1  28.4  39.6   17.8    9.02 11.1   4.60   7.89   2.10
 5     5 秋田…  0.322  19.9  37.6  44.5   13.5    8.64 10.6   4.48   8.09   3.77
 6     6 山形…  0.379  23.2  34.0  45.2   14.9    7.37  9.87  4.28   6.51   5.08
 7     7 福島…  0.545  23.9  31.8  38.2   13.6   12.1  12.8   5.31   7.99   3.01
 8     8 茨城…  0.656  25.1  30.3  39.3   15.2    7.15 15.1   6.73   7.73   1.46
 9     9 栃木…  0.648  25.0  29.6  40.3   18.9    9.94 12.8   4.90   5.04   1.03
10    10 群馬…  0.638  24.8  30.9  40.6   16.4    9.76 12.4   4.67   7.58   1.87
# … with 37 more rows, and 4 more variables: Reiwa <dbl>, NHK <dbl>,
#   Region2 <dbl>, Region6 <dbl>
…
　これは出力された内容以外にも36行が更にあり（つまり、36行は省略されているだけである）、Reiwa、NHK、Region2とRegion6という名の列も更にあることを意味する。データは問題なく47行13列であることが分かる。

　もし、20行を出力したい場合はprint(オブジェクト名, n = 20)と入力する。

print(my_data, n = 20)

# A tibble: 47 × 16
      ID Pref  Fiscal Young Older Jimin Rikken Kokumin Komei Ishin Kyosan Shamin
   <dbl> <chr>  <dbl> <dbl> <dbl> <dbl>  <dbl>   <dbl> <dbl> <dbl>  <dbl>  <dbl>
 1     1 北海…  0.462  23.4  32.3  32.3  20.9     6.65 11.7   7.78  11.6    1.31
 2     2 青森…  0.358  21.9  33.7  39.8  22.0     7.24 11.3   3.40   8.31   2.36
 3     3 岩手…  0.372  22.7  33.8  35.5  17.8    12.5   8.22  4.36  10.4    3.83
 4     4 宮城…  0.626  26.1  28.4  39.6  17.8     9.02 11.1   4.60   7.89   2.10
 5     5 秋田…  0.322  19.9  37.6  44.5  13.5     8.64 10.6   4.48   8.09   3.77
 6     6 山形…  0.379  23.2  34.0  45.2  14.9     7.37  9.87  4.28   6.51   5.08
 7     7 福島…  0.545  23.9  31.8  38.2  13.6    12.1  12.8   5.31   7.99   3.01
 8     8 茨城…  0.656  25.1  30.3  39.3  15.2     7.15 15.1   6.73   7.73   1.46
 9     9 栃木…  0.648  25.0  29.6  40.3  18.9     9.94 12.8   4.90   5.04   1.03
10    10 群馬…  0.638  24.8  30.9  40.6  16.4     9.76 12.4   4.67   7.58   1.87
11    11 埼玉…  0.770  26.2  27.3  31.4  20.8     5.21 14.5   7.32  10.6    1.58
12    12 千葉…  0.778  26.2  28.0  36.4  20.0     4.23 14.1   6.19   9.38   1.52
13    13 東京…  1.15   27.4  23.3  32.6  17.7     4.74 11.5   8.33  11.3    1.80
14    14 神奈…  0.889  26.9  25.9  34.9  18.9     5.27 11.3   8.95   9.65   1.58
15    15 新潟…  0.475  23.5  33.0  43.7  20.2     6.14  8.22  5.01   6.70   3.45
16    16 富山…  0.485  23.6  32.9  44.6   8.09    7.39  9.18 14.5    5.72   4.37
17    17 石川…  0.518  26.3  30.2  51.5  12.1     6.83 10.0   5.93   5.37   1.44
18    18 福井…  0.421  25.6  31.1  45.2  12.0     9.98 10.5   6.54   6.38   1.25
19    19 山梨…  0.409  24.7  31.1  39.9  16.7     9.55 11.9   4.88   7.68   2.05
20    20 長野…  0.528  24.2  32.3  31.9  18.0    13.5  10.5   5.27  11.1    2.29
# … with 27 more rows, and 4 more variables: Reiwa <dbl>, NHK <dbl>,
#   Region2 <dbl>, Region6 <dbl>
…
