MicroAnalysis@Kandai - 第8回講義資料
…
my_df3 <- read_csv("Data/BuildingData.csv") # 第6回のデータ

Rows: 47 Columns: 5
── Column specification ────────────────────────────────────────────────────────
Delimiter: ","
chr (1): Pref
dbl (4): ID, Finance, Over65, Turnout

ℹ Use `spec()` to retrieve the full column specification for this data.
ℹ Specify the column types or set `show_col_types = FALSE` to quiet this message.

my_df3

# A tibble: 47 × 5
      ID Pref   Finance Over65 Turnout
   <dbl> <chr>    <dbl>  <dbl>   <dbl>
 1     1 北海道   0.462   32.3    58.8
 2     2 青森県   0.358   33.7    52.9
 3     3 岩手県   0.372   33.8    60.4
 4     4 宮城県   0.626   28.4    55.9
 5     5 秋田県   0.322   37.6    58.2
 6     6 山形県   0.379   34.0    64.3
 7     7 福島県   0.545   31.8    58.0
 8     8 茨城県   0.656   30.3    52.5
 9     9 栃木県   0.648   29.6    53.1
10    10 群馬県   0.638   30.9    53.9
# … with 37 more rows
…
class(my_df3[c(13, 27, 40), ])

[1] "tbl_df"     "tbl"        "data.frame"

列の抽出

my_df3[, 2]

# A tibble: 47 × 1
   Pref  
   <chr> 
 1 北海道
 2 青森県
 3 岩手県
 4 宮城県
 5 秋田県
 6 山形県
 7 福島県
 8 茨城県
 9 栃木県
10 群馬県
# … with 37 more rows

class(my_df3[, 2])

[1] "tbl_df"     "tbl"        "data.frame"

my_df3[, c(2, 4, 5)]

# A tibble: 47 × 3
   Pref   Over65 Turnout
   <chr>   <dbl>   <dbl>
 1 北海道   32.3    58.8
 2 青森県   33.7    52.9
 3 岩手県   33.8    60.4
 4 宮城県   28.4    55.9
 5 秋田県   37.6    58.2
 6 山形県   34.0    64.3
 7 福島県   31.8    58.0
 8 茨城県   30.3    52.5
 9 栃木県   29.6    53.1
10 群馬県   30.9    53.9
# … with 37 more rows
…
