MicroAnalysis@Kandai - 第10回講義資料
…
{dplyr}の例

例) dfのPopulationをAreaで割り（人口密度）、Densityという名の列として追加する

新しく追加された列は最後に位置する

ただし、上書きの場合、位置はそのまま

df %>%
  mutate(Density = Population / Area) %>%
  print(n = 5) # 最初の5行のみ出力

# A tibble: 186 × 19
  Country   Population   Area    GDP     PPP GDP_per_capita PPP_per_capita    G7
  <chr>          <dbl>  <dbl>  <dbl>   <dbl>          <dbl>          <dbl> <dbl>
1 Afghanis…   38928346 6.53e5 1.91e4  82737.           491.          2125.     0
2 Albania      2877797 2.74e4 1.53e4  39658.          5309.         13781.     0
3 Algeria     43851044 2.38e6 1.70e5 496572.          3876.         11324.     0
4 Andorra        77265 4.7 e2 3.15e3     NA          40821.            NA      0
5 Angola      32866272 1.25e6 9.46e4 218533.          2879.          6649.     0
# … with 181 more rows, and 11 more variables: G20 <dbl>, OECD <dbl>,
#   HDI_2018 <dbl>, Polity_Score <dbl>, Polity_Type <chr>, FH_PR <dbl>,
#   FH_CL <dbl>, FH_Total <dbl>, FH_Status <chr>, Continent <chr>,
#   Density <dbl>

新しい列の位置指定

mutate()内に.after、または.beforeを指定

relocate()関数と同じ仕組み（第9回）

例) PopulationをAreaで割り、Densityという名の新しい列Areaの後に追加する。

df %>%
  mutate(Density = Population / Area, 
         .after  = Area)

# A tibble: 186 × 19
   Country             Population    Area Density     GDP     PPP GDP_per_capita
   <chr>                    <dbl>   <dbl>   <dbl>   <dbl>   <dbl>          <dbl>
 1 Afghanistan           38928346  652860   59.6   1.91e4  8.27e4           491.
 2 Albania                2877797   27400  105.    1.53e4  3.97e4          5309.
 3 Algeria               43851044 2381740   18.4   1.70e5  4.97e5          3876.
 4 Andorra                  77265     470  164.    3.15e3 NA              40821.
 5 Angola                32866272 1246700   26.4   9.46e4  2.19e5          2879.
 6 Antigua and Barbuda      97929     440  223.    1.73e3  2.08e3         17643.
 7 Argentina             45195774 2736690   16.5   4.50e5  1.04e6          9949.
 8 Armenia                2963243   28470  104.    1.37e4  3.84e4          4614.
 9 Australia             25499884 7682300    3.32  1.39e6  1.28e6         54615.
10 Austria                9006398   82409  109.    4.46e5  5.03e5         49555.
# … with 176 more rows, and 12 more variables: PPP_per_capita <dbl>, G7 <dbl>,
#   G20 <dbl>, OECD <dbl>, HDI_2018 <dbl>, Polity_Score <dbl>,
#   Polity_Type <chr>, FH_PR <dbl>, FH_CL <dbl>, FH_Total <dbl>,
#   FH_Status <chr>, Continent <chr>
…
Share_Popが大きい順で行を並び替える

変数の計算いろいろ（1）

df %>% 
  # Total_Popを作らずにShare_Pop作成時に直接sum(Population)を入れてもOK
  mutate(Total_Pop = sum(Population),
         Share_Pop = Population / Total_Pop * 100,
         .after    = Population) %>%
  select(Country:Share_Pop) %>%
  select(!Total_Pop) %>%
  arrange(desc(Share_Pop))

# A tibble: 186 × 3
   Country       Population Share_Pop
   <chr>              <dbl>     <dbl>
 1 China         1447470092     18.6 
 2 India         1380004385     17.8 
 3 United States  334308644      4.31
 4 Indonesia      273523615      3.52
 5 Pakistan       220892340      2.85
 6 Brazil         212559417      2.74
 7 Nigeria        206139589      2.66
 8 Bangladesh     164689383      2.12
 9 Russia         145934462      1.88
10 Mexico         128932753      1.66
# … with 176 more rows
…
